\relax 
\providecommand\hyper@newdestlabel[2]{}
\providecommand\babel@aux[2]{}
\@nameuse{bbl@beforestart}
\providecommand\HyperFirstAtBeginDocument{\AtBeginDocument}
\HyperFirstAtBeginDocument{\ifx\hyper@anchor\@undefined
\global\let\oldcontentsline\contentsline
\gdef\contentsline#1#2#3#4{\oldcontentsline{#1}{#2}{#3}}
\global\let\oldnewlabel\newlabel
\gdef\newlabel#1#2{\newlabelxx{#1}#2}
\gdef\newlabelxx#1#2#3#4#5#6{\oldnewlabel{#1}{{#2}{#3}}}
\AtEndDocument{\ifx\hyper@anchor\@undefined
\let\contentsline\oldcontentsline
\let\newlabel\oldnewlabel
\fi}
\fi}
\global\let\hyper@last\relax 
\gdef\HyperFirstAtBeginDocument#1{#1}
\providecommand\HyField@AuxAddToFields[1]{}
\providecommand\HyField@AuxAddToCoFields[2]{}
\babel@aux{english}{}
\@writefile{toc}{\contentsline {chapter}{\numberline {1}Reference model development}{1}{chapter.1}\protected@file@percent }
\@writefile{lof}{\addvspace {10\p@ }}
\@writefile{lot}{\addvspace {10\p@ }}
\newlabel{chap1}{{1}{1}{Reference model development}{chapter.1}{}}
\@writefile{toc}{\contentsline {section}{\numberline {1.1}Filter design and coefficient quantization using Matlab/Octave}{1}{section.1.1}\protected@file@percent }
\@writefile{lof}{\contentsline {figure}{\numberline {1.1}{\ignorespaces Transfer function\relax }}{1}{figure.caption.2}\protected@file@percent }
\providecommand*\caption@xref[2]{\@setref\relax\@undefined{#1}}
\newlabel{fig:transfer}{{1.1}{1}{Transfer function\relax }{figure.caption.2}{}}
\@writefile{toc}{\contentsline {section}{\numberline {1.2}Testing the filter and fixed point implementation}{2}{section.1.2}\protected@file@percent }
\@writefile{toc}{\contentsline {subsection}{\numberline {1.2.1}First step: Matlab/Octave pseudo-fixed-point}{2}{subsection.1.2.1}\protected@file@percent }
\@writefile{lof}{\contentsline {figure}{\numberline {1.2}{\ignorespaces Output graph with a focus on harmonics and THD\relax }}{2}{figure.caption.3}\protected@file@percent }
\newlabel{fig:thd}{{1.2}{2}{Output graph with a focus on harmonics and THD\relax }{figure.caption.3}{}}
\@writefile{toc}{\contentsline {subsection}{\numberline {1.2.2}Second step: fixed-point C model}{2}{subsection.1.2.2}\protected@file@percent }
\@writefile{toc}{\contentsline {subsection}{\numberline {1.2.3}Comments on the results}{2}{subsection.1.2.3}\protected@file@percent }
\@writefile{lof}{\contentsline {figure}{\numberline {1.3}{\ignorespaces Architecture scheme\relax }}{3}{figure.caption.4}\protected@file@percent }
\newlabel{fig:arch}{{1.3}{3}{Architecture scheme\relax }{figure.caption.4}{}}
\@writefile{toc}{\contentsline {chapter}{\numberline {2}VLSI Implementation}{4}{chapter.2}\protected@file@percent }
\@writefile{lof}{\addvspace {10\p@ }}
\@writefile{lot}{\addvspace {10\p@ }}
\newlabel{chap2}{{2}{4}{VLSI Implementation}{chapter.2}{}}
\@writefile{toc}{\contentsline {section}{\numberline {2.1}Architecture development}{4}{section.2.1}\protected@file@percent }
\@writefile{toc}{\contentsline {section}{\numberline {2.2}Simulation}{4}{section.2.2}\protected@file@percent }
\@writefile{toc}{\contentsline {subsection}{\numberline {2.2.1}Testbench}{4}{subsection.2.2.1}\protected@file@percent }
\@writefile{toc}{\contentsline {subsection}{\numberline {2.2.2}Implementation Equivalence}{4}{subsection.2.2.2}\protected@file@percent }
\@writefile{toc}{\contentsline {section}{\numberline {2.3}Synthesis}{5}{section.2.3}\protected@file@percent }
\@writefile{toc}{\contentsline {section}{\numberline {2.4}Place \& Route}{6}{section.2.4}\protected@file@percent }
\@writefile{toc}{\contentsline {chapter}{\numberline {3}Advanced architecture development}{9}{chapter.3}\protected@file@percent }
\@writefile{lof}{\addvspace {10\p@ }}
\@writefile{lot}{\addvspace {10\p@ }}
\newlabel{chap3}{{3}{9}{Advanced architecture development}{chapter.3}{}}
\@writefile{toc}{\contentsline {section}{\numberline {3.1}J look ahead and throughput optimization}{9}{section.3.1}\protected@file@percent }
\@writefile{lof}{\contentsline {figure}{\numberline {3.1}{\ignorespaces Diagram of the resulting J look ahead architecture without throughput optimizations\relax }}{9}{figure.caption.5}\protected@file@percent }
\newlabel{fig:jla_no_opt}{{3.1}{9}{Diagram of the resulting J look ahead architecture without throughput optimizations\relax }{figure.caption.5}{}}
\@writefile{lof}{\contentsline {figure}{\numberline {3.2}{\ignorespaces Diagram of the resulting J look ahead architecture with throughput optimizations\relax }}{10}{figure.caption.6}\protected@file@percent }
\newlabel{fig:jla_opt}{{3.2}{10}{Diagram of the resulting J look ahead architecture with throughput optimizations\relax }{figure.caption.6}{}}
\@writefile{toc}{\contentsline {section}{\numberline {3.2}Synthesis}{10}{section.3.2}\protected@file@percent }
\@writefile{lot}{\contentsline {table}{\numberline {3.1}{\ignorespaces Synthesis results for the J look ahead architecture\relax }}{10}{table.caption.7}\protected@file@percent }
\newlabel{tab:j_synth}{{3.1}{10}{Synthesis results for the J look ahead architecture\relax }{table.caption.7}{}}
\@writefile{lot}{\contentsline {table}{\numberline {3.2}{\ignorespaces Comparison of synthesis results for both architectures\relax }}{10}{table.caption.8}\protected@file@percent }
\newlabel{tab:comp_syn}{{3.2}{10}{Comparison of synthesis results for both architectures\relax }{table.caption.8}{}}
\@writefile{toc}{\contentsline {section}{\numberline {3.3}Place and Route}{10}{section.3.3}\protected@file@percent }
\@writefile{lot}{\contentsline {table}{\numberline {3.3}{\ignorespaces Place and Route results for the J look ahead architecture\relax }}{11}{table.caption.9}\protected@file@percent }
\newlabel{tab:j_pr}{{3.3}{11}{Place and Route results for the J look ahead architecture\relax }{table.caption.9}{}}
\@writefile{lot}{\contentsline {table}{\numberline {3.4}{\ignorespaces Comparison of Place and Route results for both architectures\relax }}{11}{table.caption.10}\protected@file@percent }
\newlabel{tab:comp_pr}{{3.4}{11}{Comparison of Place and Route results for both architectures\relax }{table.caption.10}{}}
\@writefile{toc}{\contentsline {chapter}{\numberline {A}Simulation and Synthesis Scripts}{12}{appendix.A}\protected@file@percent }
\@writefile{lof}{\addvspace {10\p@ }}
\@writefile{lot}{\addvspace {10\p@ }}
\newlabel{appendix1}{{A}{12}{Simulation and Synthesis Scripts}{appendix.A}{}}
\@writefile{toc}{\contentsline {section}{\numberline {A.1}First design Synthesis}{12}{section.A.1}\protected@file@percent }
\newlabel{first_syn}{{A.1}{12}{First design Synthesis}{section.A.1}{}}
\@writefile{toc}{\contentsline {section}{\numberline {A.2}Switching activity}{13}{section.A.2}\protected@file@percent }
\newlabel{sw_act}{{A.2}{13}{Switching activity}{section.A.2}{}}
\@writefile{toc}{\contentsline {subsection}{\numberline {A.2.1}Bash script}{13}{subsection.A.2.1}\protected@file@percent }
\@writefile{toc}{\contentsline {subsection}{\numberline {A.2.2}Simulation script}{13}{subsection.A.2.2}\protected@file@percent }
\@writefile{toc}{\contentsline {subsection}{\numberline {A.2.3}Synthesis script}{13}{subsection.A.2.3}\protected@file@percent }
\@writefile{toc}{\contentsline {section}{\numberline {A.3}Switching activity of the Placed and Routed netlist}{14}{section.A.3}\protected@file@percent }
\newlabel{sw_act_pr}{{A.3}{14}{Switching activity of the Placed and Routed netlist}{section.A.3}{}}
\@writefile{toc}{\contentsline {subsection}{\numberline {A.3.1}Bash script}{14}{subsection.A.3.1}\protected@file@percent }
\@writefile{toc}{\contentsline {subsection}{\numberline {A.3.2}Simulation script}{14}{subsection.A.3.2}\protected@file@percent }
