\BOOKMARK [0][-]{chapter.1}{Reference model development}{}% 1
\BOOKMARK [1][-]{section.1.1}{Filter design and coefficient quantization using Matlab/Octave}{chapter.1}% 2
\BOOKMARK [1][-]{section.1.2}{Testing the filter and fixed point implementation}{chapter.1}% 3
\BOOKMARK [2][-]{subsection.1.2.1}{First step: Matlab/Octave pseudo-fixed-point}{section.1.2}% 4
\BOOKMARK [2][-]{subsection.1.2.2}{Second step: fixed-point C model}{section.1.2}% 5
\BOOKMARK [2][-]{subsection.1.2.3}{Comments on the results}{section.1.2}% 6
\BOOKMARK [0][-]{chapter.2}{VLSI Implementation}{}% 7
\BOOKMARK [1][-]{section.2.1}{Architecture development}{chapter.2}% 8
\BOOKMARK [1][-]{section.2.2}{Simulation}{chapter.2}% 9
\BOOKMARK [2][-]{subsection.2.2.1}{Testbench}{section.2.2}% 10
\BOOKMARK [2][-]{subsection.2.2.2}{Implementation Equivalence}{section.2.2}% 11
\BOOKMARK [1][-]{section.2.3}{Synthesis}{chapter.2}% 12
\BOOKMARK [1][-]{section.2.4}{Place \046 Route}{chapter.2}% 13
\BOOKMARK [0][-]{chapter.3}{Advanced architecture development}{}% 14
\BOOKMARK [1][-]{section.3.1}{J look ahead and throughput optimization}{chapter.3}% 15
\BOOKMARK [1][-]{section.3.2}{Synthesis}{chapter.3}% 16
\BOOKMARK [1][-]{section.3.3}{Place and Route}{chapter.3}% 17
\BOOKMARK [0][-]{appendix.A}{Simulation and Synthesis Scripts}{}% 18
\BOOKMARK [1][-]{section.A.1}{First design Synthesis}{appendix.A}% 19
\BOOKMARK [1][-]{section.A.2}{Switching activity}{appendix.A}% 20
\BOOKMARK [2][-]{subsection.A.2.1}{Bash script}{section.A.2}% 21
\BOOKMARK [2][-]{subsection.A.2.2}{Simulation script}{section.A.2}% 22
\BOOKMARK [2][-]{subsection.A.2.3}{Synthesis script}{section.A.2}% 23
\BOOKMARK [1][-]{section.A.3}{Switching activity of the Placed and Routed netlist}{appendix.A}% 24
\BOOKMARK [2][-]{subsection.A.3.1}{Bash script}{section.A.3}% 25
\BOOKMARK [2][-]{subsection.A.3.2}{Simulation script}{section.A.3}% 26
