 
****************************************
Report : area
Design : iir_filter
Version: O-2018.06-SP4
Date   : Sat Nov 14 12:46:57 2020
****************************************

Library(s) Used:

    NangateOpenCellLibrary (File: /software/dk/nangate45/synopsys/NangateOpenCellLibrary_typical_ecsm_nowlm.db)

Number of ports:                          637
Number of nets:                          2260
Number of cells:                         1577
Number of combinational cells:           1474
Number of sequential cells:                38
Number of macros/black boxes:               0
Number of buf/inv:                        266
Number of references:                      21

Combinational area:               2154.599998
Buf/Inv area:                      162.792000
Noncombinational area:             186.465995
Macro/Black Box area:                0.000000
Net Interconnect area:      undefined  (Wire load has zero net area)

Total cell area:                  2341.065993
Total area:                 undefined
1
