###############################################################
#  Generated by:      Cadence Innovus 17.11-s080_1
#  OS:                Linux x86_64(Host ID localhost.localdomain)
#  Generated on:      Sat Nov 14 17:31:31 2020
#  Design:            iir_filter_jla
#  Command:           verifyConnectivity -type all -error 1000 -warning 50
###############################################################
Verify Connectivity Report is created on Sat Nov 14 17:31:31 2020




Begin Summary
    Found no problems or warnings.
End Summary
